…
``` r
all_results %>%
  group_by(method, error_factor, n.samples) %>%
  summarise(point.pct_na = mean(point,na.rm=TRUE),
            lower.pct_na = mean(lower,na.rm=TRUE),
            upper.pct_na = mean(upper,na.rm=TRUE))
```

    ## `summarise()` has grouped output by 'method', 'error_factor'. You can override
    ## using the `.groups` argument.

    ## # A tibble: 210 × 6
    ## # Groups:   method, error_factor [42]
    ##    method error_factor n.samples point.pct_na lower.pct_na upper.pct_na
    ##    <chr>         <dbl>     <dbl>        <dbl>        <dbl>        <dbl>
    ##  1 MINMI           0          12       10244.        7477.       10772.
    ##  2 MINMI           0          24       10137.        8825.       10407.
    ##  3 MINMI           0          36       10071.        9210.       10254.
    ##  4 MINMI           0          48       10059.        9419.       10196.
    ##  5 MINMI           0          60       10059.        9550.       10169.
    ##  6 MINMI           0.5        12       10227.        7456.       10776.
    ##  7 MINMI           0.5        24       10111.        8796.       10417.
    ##  8 MINMI           0.5        36       10074.        9213.       10300.
    ##  9 MINMI           0.5        48       10064.        9424.       10251.
    ## 10 MINMI           0.5        60       10045.        9535.       10209.
    ## # ℹ 200 more rows
…
Ignore run-times - I used that to store SEs for UN

#### Pivot to make plots and filter to `error_factor`

``` r
performance.point.long <- performance.point %>%
  rename(Method = method, n.samples = n.samples, Bias = bias, Var_000 = variance_000, Runtime = avg_runtime) %>%
  pivot_longer(cols=c(MSE_000, Bias, Var_000, Runtime), names_to = "Metric")
  
performance.point.long
```

    ## # A tibble: 100 × 4
    ## # Groups:   Method [5]
    ##    Method n.samples Metric     value
    ##    <chr>      <dbl> <chr>      <dbl>
    ##  1 MINMI         12 MSE_000 561.    
    ##  2 MINMI         12 Bias    189.    
    ##  3 MINMI         12 Var_000 526.    
    ##  4 MINMI         12 Runtime   0.0258
    ##  5 MINMI         24 MSE_000 182.    
    ##  6 MINMI         24 Bias    128.    
    ##  7 MINMI         24 Var_000 165.    
    ##  8 MINMI         24 Runtime   0.0433
    ##  9 MINMI         36 MSE_000  99.8   
    ## 10 MINMI         36 Bias     67.6   
    ## # ℹ 90 more rows
…
    ## `summarise()` has grouped output by 'n.samples'. You can override using the
    ## `.groups` argument.

``` r
performance.CI.long <- performance.CI %>%
  rename(n.samples = n.samples, Method = method, Width = `Average Width`, Runtime = `Average Runtime`) %>%
  pivot_longer(cols=c(Coverage, Width, Runtime),
               names_to = "Metric")
  
performance.CI.long
```

    ## # A tibble: 105 × 4
    ##    n.samples Method Metric       value
    ##        <dbl> <chr>  <chr>        <dbl>
    ##  1        12 MINMI  Coverage   96.6   
    ##  2        12 MINMI  Width    3384.    
    ##  3        12 MINMI  Runtime     0.0258
    ##  4        24 MINMI  Coverage   95     
    ##  5        24 MINMI  Width    1683.    
    ##  6        24 MINMI  Runtime     0.0433
    ##  7        36 MINMI  Coverage   93.7   
    ##  8        36 MINMI  Width    1162.    
    ##  9        36 MINMI  Runtime     0.0647
    ## 10        48 MINMI  Coverage   94.5   
    ## # ℹ 95 more rows
…
