…
all_results %>%
  group_by(method, error_factor, n.samples) %>%
  summarise(point.pct_na = mean(point,na.rm=TRUE),
            lower.pct_na = mean(lower,na.rm=TRUE),
            upper.pct_na = mean(upper,na.rm=TRUE))

## `summarise()` has grouped output by 'method', 'error_factor'. You can override
## using the `.groups` argument.

## # A tibble: 60 × 6
## # Groups:   method, error_factor [15]
##    method error_factor n.samples point.pct_na lower.pct_na upper.pct_na
##    <chr>         <dbl>     <dbl>        <dbl>        <dbl>        <dbl>
##  1 MINMI           0          12       15116.       13731.       15380.
##  2 MINMI           0          25       15062.       14434.       15192.
##  3 MINMI           0          50       15028.       14722.       15094.
##  4 MINMI           0         100       15014.       14863.       15048.
##  5 MINMI           0.5        12       15097.       13704.       15527.
##  6 MINMI           0.5        25       15021.       14364.       15421.
##  7 MINMI           0.5        50       14986.       14623.       15477.
##  8 MINMI           0.5       100       14957.       14714.       15515.
##  9 MINMI           1          12       15051.       13615.       15740.
## 10 MINMI           1          25       14968.       14228.       15758.
## # … with 50 more rows
…
Ignore run-times - I used that to store SEs for UN

Pivot to make
plots and filter to error_factor

performance.point.long <- performance.point %>%
  rename(Method = method, n.samples = n.samples, Bias = bias, Var_000 = variance_000, Runtime = avg_runtime) %>%
  pivot_longer(cols=c(MSE_000, Bias, Var_000, Runtime), names_to = "Metric")
  
performance.point.long

## # A tibble: 48 × 4
## # Groups:   Method [3]
##    Method n.samples Metric     value
##    <chr>      <dbl> <chr>      <dbl>
##  1 MINMI         12 MSE_000 228.    
##  2 MINMI         12 Bias     50.9   
##  3 MINMI         12 Var_000 226.    
##  4 MINMI         12 Runtime   0.0801
##  5 MINMI         25 MSE_000 107.    
##  6 MINMI         25 Bias    -31.9   
##  7 MINMI         25 Var_000 106.    
##  8 MINMI         25 Runtime   0.146 
##  9 MINMI         50 MSE_000 184.    
## 10 MINMI         50 Bias    -76.6   
## # … with 38 more rows
…
## `summarise()` has grouped output by 'n.samples'. You can override using the
## `.groups` argument.

performance.CI.long <- performance.CI %>%
  rename(n.samples = n.samples, Method = method, Width = `Average Width`, Runtime = `Average Runtime`) %>%
  pivot_longer(cols=c(Coverage, Width, Runtime),
               names_to = "Metric")
  
performance.CI.long

## # A tibble: 36 × 4
##    n.samples Method Metric       value
##        <dbl> <chr>  <chr>        <dbl>
##  1        12 MINMI  Coverage   93.9   
##  2        12 MINMI  Width    2125.    
##  3        12 MINMI  Runtime     0.0801
##  4        25 MINMI  Coverage   96.7   
##  5        25 MINMI  Width    1530.    
##  6        25 MINMI  Runtime     0.146 
##  7        50 MINMI  Coverage   94.5   
##  8        50 MINMI  Width    1566.    
##  9        50 MINMI  Runtime     0.181 
## 10       100 MINMI  Coverage   94     
## # … with 26 more rows
…
