…
#### Pivot to make plots

``` r
performance.point.long <- performance.point %>%
  rename(Error = error_factor, Method = method, Bias = bias, Var_000 = variance_000, Runtime = avg_runtime) %>%
  pivot_longer(cols=c(MSE_000, Bias, Var_000, Runtime), names_to = "Metric")
  
performance.point.long
```

    ## # A tibble: 40 × 4
    ## # Groups:   Error [5]
    ##    Error Method Metric      value
    ##    <dbl> <chr>  <chr>       <dbl>
    ##  1   0   MINMI  MSE_000   8.18   
    ##  2   0   MINMI  Bias     14.3    
    ##  3   0   MINMI  Var_000   8.40   
    ##  4   0   MINMI  Runtime   0.00006
    ##  5   0   UNci   MSE_000  14.6    
    ##  6   0   UNci   Bias     83.0    
    ##  7   0   UNci   Var_000   8.17   
    ##  8   0   UNci   Runtime   0.00519
    ##  9   0.5 MINMI  MSE_000  28.9    
    ## 10   0.5 MINMI  Bias    -25.9    
    ## # … with 30 more rows
…
    ## `summarise()` has grouped output by 'error_factor'. You can override using the
    ## `.groups` argument.

``` r
performance.CI.long <- performance.CI %>%
  rename(Error = error_factor, Method = method, Width = `Average Width`, Runtime = `Average Runtime`) %>%
  pivot_longer(cols=c(Coverage, Width, Runtime),
               names_to = "Metric")
  
performance.CI.long
```

    ## # A tibble: 30 × 4
    ##    Error Method Metric        value
    ##    <dbl> <chr>  <chr>         <dbl>
    ##  1   0   MINMI  Coverage  100      
    ##  2   0   MINMI  Width     374.     
    ##  3   0   MINMI  Runtime     0.00006
    ##  4   0.5 MINMI  Coverage  100      
    ##  5   0.5 MINMI  Width     848.     
    ##  6   0.5 MINMI  Runtime     0.0896 
    ##  7   1   MINMI  Coverage  100      
    ##  8   1   MINMI  Width    1566.     
    ##  9   1   MINMI  Runtime     0.0946 
    ## 10   2   MINMI  Coverage   90      
    ## # … with 20 more rows
…
